…
``` r
# Number of Distinct Authohr_Id

Distinct_Author<-
suggestions %>%
  group_by(Author_Id) %>%
  summarise(count=n()) %>%
  arrange(desc(count))

print(Distinct_Author)
```

    ## # A tibble: 4,692 x 2
    ##    Author_Id count
    ##        <int> <int>
    ##  1    292847   197
    ##  2    394835   159
    ##  3    478933   120
    ##  4    312685   108
    ##  5    992971    85
    ##  6    550387    77
    ##  7     36710    75
    ##  8    845514    73
    ##  9   1143837    70
    ## 10    905707    69
    ## # ... with 4,682 more rows
…
``` r
glm_new %>% 
  filter(abs(.std.resid) > 3)
```

    ## # A tibble: 197 x 16
    ##    .rownames Recommended Responses Views Votes_Up Votes_Down Author_emplyd_days
    ##    <chr>           <int>     <int> <int>    <int>      <int>              <int>
    ##  1 743                 0       120  5517      247         12               1098
    ##  2 48                  0       162  4585      361          4               1226
    ##  3 4157                0       120 30072      519         76               1619
    ##  4 1589                0        91  2180      167         21               1615
    ##  5 5763                0        57  3231      208          2               1176
    ##  6 659                 0       146 10779      416         59               1061
    ##  7 64                  0       244  6921      473         12               1237
    ##  8 31                  0       148  3639      419         37               1352
    ##  9 1                   0        77  3849      242          7               1615
    ## 10 2678                0        96  3220      252          6               1362
    ## # ... with 187 more rows, and 9 more variables: Author_TotalPosts <int>,
    ## #   Author_PostsPerDay <dbl>, .fitted <dbl>, .resid <dbl>, .std.resid <dbl>,
    ## #   .hat <dbl>, .sigma <dbl>, .cooksd <dbl>, index <int>
…
